Music Hit Prediction - CMSC 320 Final Project
…
song_files <- c(songs_2010,songs_2000,songs_1990,songs_1980,songs_1970,songs_1960)
song_df <- NULL
for (song_file in song_files) {
  tmp_df <- read.csv(song_file)
  decade <- str_extract(song_file,"\\d{2}")
  tmp_df$decade <- decade
  song_df <- bind_rows(song_df,tmp_df)
}
song_df$decade <- ordered(song_df$decade, levels = c("60","70","80","90","00","10"))

as_tibble(song_df)

## # A tibble: 41,106 x 20
##    track artist uri   danceability energy   key loudness  mode speechiness
##    <chr> <chr>  <chr>        <dbl>  <dbl> <int>    <dbl> <int>       <dbl>
##  1 Wild Aless spot        0.741  0.626     1    -4.83     0      0.0886
##  2 Surf Esqui spot        0.447  0.247     5   -14.7      0      0.0346
##  3 Love Lukas spot        0.55   0.415     9    -6.56     0      0.052 
##  4 Musi Keys  spot        0.502  0.648     0    -5.70     0      0.0527
##  5 Juju Zay H spot        0.807  0.887     1    -3.89     1      0.275 
##  6 Here Avril spot        0.482  0.873     0    -3.14     1      0.0853
##  7 Sex  In Th spot        0.533  0.935     0    -3.70     1      0.128 
##  8 Hell Ludac spot        0.736  0.522     2    -8.02     1      0.116 
##  9 Holi No Br spot        0.166  0.985     7    -2.89     1      0.17  
## 10 My L Big S spot        0.387  0.773     8    -5.68     1      0.17  
## #  with 41,096 more rows, and 11 more variables: acousticness <dbl>,
## #   instrumentalness <dbl>, liveness <dbl>, valence <dbl>, tempo <dbl>,
## #   duration_ms <int>, time_signature <int>, chorus_hit <dbl>, sections <int>,
## #   target <int>, decade <ord>

Once our data frame is generated, we must get rid of data that is not important for the purpose of this project. We dont need the resource url of a song so we can remove the uri column. Although a tracks key does speak to its composition, most music listeners arent aware of the key they are listening to, so we will omit this. We also decided to get rid of valence because we felt like measuring positiveness of a song introduces some subjectivity and we werent interested in the potential overhead of including this attribute in our models. Below is the song dataframe that will be used for the majority of this project:

song_df <- song_df %>% 
  select(-c(uri,key,valence))

as_tibble(song_df)

## # A tibble: 41,106 x 17
##    track artist danceability energy loudness  mode speechiness acousticness
##    <chr> <chr>         <dbl>  <dbl>    <dbl> <int>       <dbl>        <dbl>
##  1 Wild Aless        0.741  0.626    -4.83     0      0.0886      0.02   
##  2 Surf Esqui        0.447  0.247   -14.7      0      0.0346      0.871  
##  3 Love Lukas        0.55   0.415    -6.56     0      0.052       0.161  
##  4 Musi Keys         0.502  0.648    -5.70     0      0.0527      0.00513
##  5 Juju Zay H        0.807  0.887    -3.89     1      0.275       0.00381
##  6 Here Avril        0.482  0.873    -3.14     1      0.0853      0.0111 
##  7 Sex  In Th        0.533  0.935    -3.70     1      0.128       0.0139 
##  8 Hell Ludac        0.736  0.522    -8.02     1      0.116       0.0299 
##  9 Holi No Br        0.166  0.985    -2.89     1      0.17        0.00183
## 10 My L Big S        0.387  0.773    -5.68     1      0.17        0.098  
## #  with 41,096 more rows, and 9 more variables: instrumentalness <dbl>,
## #   liveness <dbl>, tempo <dbl>, duration_ms <int>, time_signature <int>,
## #   chorus_hit <dbl>, sections <int>, target <int>, decade <ord>

The target attribute identifies whether or not a song is a hit by assigning hits with the attribute walue 1 and non-hits with 0. Here is a data frame of all songs Spotify considers a hit:

hits_only <- filter(song_df,target == 1) 

as_tibble(hits_only)

## # A tibble: 20,553 x 17
##    track artist danceability energy loudness  mode speechiness acousticness
##    <chr> <chr>         <dbl>  <dbl>    <dbl> <int>       <dbl>        <dbl>
##  1 Wild Aless        0.741  0.626    -4.83     0      0.0886      0.02   
##  2 Love Lukas        0.55   0.415    -6.56     0      0.052       0.161  
##  3 Juju Zay H        0.807  0.887    -3.89     1      0.275       0.00381
##  4 Here Avril        0.482  0.873    -3.14     1      0.0853      0.0111 
##  5 Hell Ludac        0.736  0.522    -8.02     1      0.116       0.0299 
##  6 My L Big S        0.387  0.773    -5.68     1      0.17        0.098  
##  7 Brea Cole         0.507  0.372    -8.43     1      0.0303      0.481  
##  8 Craw Daugh        0.438  0.919    -2.91     0      0.0495      0.00674
##  9 Hotl Drake         0.891  0.625    -7.86     1      0.0558      0.00261
## 10 Cut  KCamp        0.769  0.611    -2.85     1      0.039       0.098  
## #  with 20,543 more rows, and 9 more variables: instrumentalness <dbl>,
## #   liveness <dbl>, tempo <dbl>, duration_ms <int>, time_signature <int>,
## #   chorus_hit <dbl>, sections <int>, target <int>, decade <ord>
…
